{
  "type": "service_account",
  "project_id": "mmsparams2",
  "private_key_id": "661cdcdf0843353bf8f549a3583ea28114770955",
  "private_key": "-----BEGIN PRIVATE KEY-----\nMIIEvgIBADANBgkqhkiG9w0BAQEFAASCBKgwggSkAgEAAoIBAQDMXL+hkdiKI8gr\ng9lWQjb8ESXt6TJrZbjq8w6QiIzOxN1uwmTa9XNW7VzX1Znb9EL+vXJrjd9aF+bf\nXWsDZwwDMuY6GlbDZPaewWvwqV8zyh1P9XHo9AbIozB0HjU4iGu1hJcVoPnUR1yh\nb9qUKIe1HDKSHBG5jh0IwMipnpKOIOmXq66dAMkT17PH0JByRw9Th7ABMDARexwZ\nuEgzx/B0rsWQZ6uLUumlEAisZSgp9LENRYMgXs0a8ZFk51IgASMB+7CSbTI5ZkLa\nrksuaRIVlf7gCi6MmOP/2sG9Kg0cdh5t+TZr6EB2Nkgxel/xMGc7IjEHVzb5gZiM\n6oRwrWcLAgMBAAECggEACBK960cUs9hYBwgNZO/2thyDUBO/TyjUlkuFzsXmMiDq\n0n5Rd6jspol3+nrQujS7FM8tHvyazzdUgoxxNtAyVEoFeFQkC1IIwBrKBdbbEPOy\nFr+OgXJqdjCkMGIlHhedka0sPsl+NRmgmiwOCX5UZh44DTeYp6jqkrby9mhyR7UJ\nEktlbFGpnEiqvn3pInP6Yii9cwK1QfIyeqEk3E9FoW/Ngk216U2/ZUtgvG08K3gx\nfUgTS3ohLGNdDSChQnsX/2LmmFExVMqwiWPwHdPtigZK5IYLL5H3GhCYZXp03ZvQ\nAKvcWcr9AhT8LXBhGnElgTjaI1fUllXdnFk9sSmoeQKBgQDoow4oBMB+xUdibKDD\n9TNMArEHX8zvzRsMPxF4mZ4OMta+aP7rGHn15HgNt5w9hqqojUZLfyXl6vBcWlia\nEve37+PzsWtjiZq4rA4+aL5EE0R07ilNhYF6MryQLMP6aRB7VM82+puK2E93Q4rG\nY6Gtyue3VnU5dzg0YVqtDKwSVQKBgQDg4sVNqwejmcitMyyr68+/8LcOTbhC30Zo\n9kbACIAc6/kod0hMQ2s5p/62pkbt7hr4bzr7jhiz6qMHtKmTdFTQ9+ZMukRjZ1Bm\n38VgWUpcTUk9ugSBJwPExIubp6Zo6uaEGd6mMDQCVzQEAia4nnD3f55O9J5dAq/W\nDwAQ5hiz3wKBgQC3Ai7MxJA6Ki/x+cqu3WIxVZy2VGL/8rZod+TintZ8DPpqaGbB\nw0uOaOEYyWyb6iiu2BSIp8nEiYH05Q32hx1hEdKdjuEQONwCkzfRWMz0+MNNyV2s\nom4tF2THdq/lemmA3EL22UcrfudkxzmQwCgcdBa9X8JwJp2Md1nB8Moc0QKBgE/c\n+MiuVlYpRPUNWW3snqjBaaDwxOEqvayE2XdVDXo36xIN2mULBEdDe9eNkV7p0jYr\n+jxfqDIsv5z68cXl6EEV6HmTJLpQdGM0ULn4u8mvwLTlHLhpDJOSYSn0DcrwsNB1\nB3bpY275XQWXZfzmd6PNdIEBqkPJsnxIc3OM43TtAoGBAI00w02+jtn8+sPr/au+\nYLSTlTHznBtJXi6VAIsqM0nNXeCtS60hv0HE+7+dZFT9i/7f0sI7unCxjCGbrs4/\ng9th4bc9VUuMfz7EO0CKDcJImJ9HUi+o75QleC8ZR0QdK2ckmshIdF7IPlt6EBaV\ns2yFf4HtA6tZh4saJiNPwt0F\n-----END PRIVATE KEY-----\n",
  "client_email": "firebase-adminsdk-1p4f6@mmsparams2.iam.gserviceaccount.com",
  "client_id": "112679636649677684024",
  "auth_uri": "https://accounts.google.com/o/oauth2/auth",
  "token_uri": "https://oauth2.googleapis.com/token",
  "auth_provider_x509_cert_url": "https://www.googleapis.com/oauth2/v1/certs",
  "client_x509_cert_url": "https://www.googleapis.com/robot/v1/metadata/x509/firebase-adminsdk-1p4f6%40mmsparams2.iam.gserviceaccount.com"
}
